Cf...`.x.....*A...yq...k...$.".\+..;..]..F.a..T%.hB.EN.:h.<.....)1<1...9.......=.....|V..$......R.}....7.....p....gv..t.a..X].mJZ....Q
V.~3..?.!g...B>.~...,....o.$.v...R_f^1.1........:..7....S..@K.i 
............XW...x..vuHp...[.).^.~.[...P..o....Q.5..M.;:.6..S]...u.......fct.@.3..:.>$...)	>....X....Y.U ..?...}..h..k.m..!...;...>...........!...;...>....................$`@........%.;....=*.w........g......]Q.2..2.l.=.2..NZ..2.`.
.+.l......t........sSUX.....b6..
..*......(..W.QiI..otl./.S.n..yn<D....#..^..Q;f....^+......v..flag.?S.V.F"8..8..A.1.W.VK.[......T...Fq5
X.q...
.....R.
...V.&g%f.V...
R........ax..cOMTRW..m..f.3..o. ....;.......J...CdZD'...	.l.....i.I.-.oFhS<..\.U.B}j..x......?.(..%...T..2.\.